# Fdb version 3
["pdflatex"] 1577655606 "introduction.tex" "introduction.pdf" "introduction" 1577655606
  "/usr/local/texlive/2019basic/texmf-dist/web2c/texmf.cnf" 1553552136 35430 ca24fb44b873d21ac4c63d01600decd4 ""
  "/usr/local/texlive/2019basic/texmf-var/web2c/pdftex/pdflatex.fmt" 1562391215 2678473 cc25e17bc44c61ceac4bea4d9b7212f0 ""
  "/usr/local/texlive/2019basic/texmf.cnf" 1554925189 628 6cfff46d1fd9ae1d47a88551035aa162 ""
  "introduction.aux" 1577655576 1021 de9961cb2db8ac088ac02b1b9af4f3de ""
  "introduction.tex" 1577655450 650 3edc6203fc661a697bbb408c477d8434 ""
  (generated)
  "introduction.log"
  "introduction.pdf"
